
ADDI 00000, 00101, 0000000000000000

ADDI 00000, 00111, 0000000000010100

BEQ 00001, 00111, 0000000000001000

LW 00100, 00010, 0000001111101000

RT 00101, 00010, 00110, ,,00000,,101010

BEQ 00000, 00110, 0000000000000010

RT 00000, 00010, 00101, ,,00000,,100000

RT 00000, 00001, 00011, ,,00000,,100000

ADDI 00001, 00001, 0000000000000001

ADDI 00100, 00100, 0000000000000100

JU 00000000000000000000000010

SW 00000, 00101, 0000011111010000

SW 00000, 00011, 0000011111010100